%YAML 1.1
%TAG !u! tag:unity3d.com,2011:
--- !u!114 &11400000
MonoBehaviour:
  m_ObjectHideFlags: 0
  m_CorrespondingSourceObject: {fileID: 0}
  m_PrefabInstance: {fileID: 0}
  m_PrefabAsset: {fileID: 0}
  m_GameObject: {fileID: 0}
  m_Enabled: 1
  m_EditorHideFlags: 0
  m_Script: {fileID: 11500000, guid: b01e606b9bacdeb48849eba0146dfd07, type: 3}
  m_Name: LeftRightBottomeCarteChemin
  m_EditorClassIdentifier: 
  myTrail:
    bottomeLeft: 0
    bottomeRight: 0
    myTile: {fileID: 0}
    openTop: 0
    openLeft: 0
    openRight: 0
    openDown: 0
  mySprite: {fileID: 0}
  gears: {fileID: 0}
